R包tidymodels – Just a BLOG
…
...
and 116 more lines.
# A tibble: 157 × 5
   term                         estimate std.error statistic  p.value
   <chr>                           <dbl>     <dbl>     <dbl>    <dbl>
 1 (Intercept)                   7.28    2.73           2.67 7.64e- 3
 2 dep_time                     -0.00166 0.0000141   -118.   0       
 3 air_time                     -0.0440  0.000563     -78.2  0       
 4 distance                      0.00507 0.00150        3.38 7.32e- 4
 5 date_USChristmasDay           1.33    0.177          7.49 6.93e-14
 6 date_USColumbusDay            0.724   0.170          4.25 2.13e- 5
 7 date_USCPulaskisBirthday      0.807   0.139          5.80 6.57e- 9
 8 date_USDecorationMemorialDay  0.585   0.117          4.98 6.32e- 7
 9 date_USElectionDay            0.948   0.190          4.98 6.25e- 7
10 date_USGoodFriday             1.25    0.167          7.45 9.40e-14
# ℹ 147 more rows
…
now,用poly_fit来拟合一些数据

代码
```{r}
age_range <- tibble(age = seq(min(Wage$age), max(Wage$age)))

regression_lines <- bind_cols(
  augment(poly_fit, new_data = age_range),
  predict(poly_fit, new_data = age_range, type = "conf_int")
)
regression_lines
```

# A tibble: 63 × 4
   .pred   age .pred_lower .pred_upper
   <dbl> <int>       <dbl>       <dbl>
 1  51.9    18        41.5        62.3
 2  58.5    19        49.9        67.1
 3  64.6    20        57.5        71.6
 4  70.2    21        64.4        76.0
 5  75.4    22        70.5        80.2
 6  80.1    23        76.0        84.2
 7  84.5    24        80.9        88.1
 8  88.5    25        85.2        91.7
 9  92.1    26        89.1        95.2
10  95.4    27        92.5        98.4
# ℹ 53 more rows
…
